MBON Zooplankton Quick Visual – SEUS MBON Zooplankton Microscopy Analyses
…
2.0 —- Setup —-

2.1 Load Libraries

3.0 Load Dataset

load file

dat <- 
  here("data", "zoo_data_pre_obis_merg.csv") %>%
  read_csv(show_col_types = FALSE) %T>% 
  print()

# A tibble: 2,297 × 73
   file_metadta                cruise_id station site   mesh date_time          
   <chr>                       <chr>     <chr>   <chr> <dbl> <dttm>             
 1 fknms_sample_logsheet_June… WS17170   Molass… MR      500 2017-06-19 00:21:00
 2 fknms_sample_logsheet_June… WS17170   Molass… MR      500 2017-06-19 00:21:00
 3 fknms_sample_logsheet_June… WS17170   Molass… MR      500 2017-06-19 00:21:00
 4 fknms_sample_logsheet_June… WS17170   Molass… MR      500 2017-06-19 00:21:00
 5 fknms_sample_logsheet_June… WS17170   Molass… MR      500 2017-06-19 00:21:00
 6 fknms_sample_logsheet_June… WS17170   Molass… MR      500 2017-06-19 00:21:00
 7 fknms_sample_logsheet_June… WS17170   Molass… MR      500 2017-06-19 00:21:00
 8 fknms_sample_logsheet_June… WS17170   Molass… MR      500 2017-06-19 00:21:00
 9 fknms_sample_logsheet_June… WS17170   Molass… MR      500 2017-06-19 00:21:00
10 fknms_sample_logsheet_June… WS17170   Molass… MR      500 2017-06-19 00:21:00
# ℹ 2,287 more rows
# ℹ 67 more variables: date <dttm>, time_gmt <time>, lat_in <dbl>,
#   lon_in <dbl>, coordinateUncertaintyInMeters <dbl>,
#   minimumDepthInMeters <dbl>, maximumDepthInMeters <dbl>, flowmeter_in <dbl>,
#   flowmeter_out <dbl>, flowmeter_diff <dbl>, ship_speed_knots <dbl>,
#   inpeller_constant <dbl>, split_size <dbl>, notes <chr>, tow_time_min <dbl>,
#   net_size <dbl>, net_area <dbl>, distance_m <dbl>, tow_speed_m_sec <dbl>, …
…
    date_time, date, time_gmt,
    lat_in, lon_in,
    maximumDepthInMeters,
    volume_filt_cubic_m,
    taxa, scientificname, lifeStage, ind_m3, number_ind_sample,
    kingdom:genus
  ) %>%
  mutate(
    .after     = date,
    year       = year(date_time), 
    date_month = ym(format(date, "%Y-%m"))
    ) %T>% 
  print()

# A tibble: 2,297 × 24
   cruise_id station   site   mesh date_time           date                 year
   <chr>     <chr>     <chr> <dbl> <dttm>              <dttm>              <dbl>
 1 WS17170   Molasses… MR      500 2017-06-19 00:21:00 2017-06-19 00:00:00  2017
 2 WS17170   Molasses… MR      500 2017-06-19 00:21:00 2017-06-19 00:00:00  2017
 3 WS17170   Molasses… MR      500 2017-06-19 00:21:00 2017-06-19 00:00:00  2017
 4 WS17170   Molasses… MR      500 2017-06-19 00:21:00 2017-06-19 00:00:00  2017
 5 WS17170   Molasses… MR      500 2017-06-19 00:21:00 2017-06-19 00:00:00  2017
 6 WS17170   Molasses… MR      500 2017-06-19 00:21:00 2017-06-19 00:00:00  2017
 7 WS17170   Molasses… MR      500 2017-06-19 00:21:00 2017-06-19 00:00:00  2017
 8 WS17170   Molasses… MR      500 2017-06-19 00:21:00 2017-06-19 00:00:00  2017
 9 WS17170   Molasses… MR      500 2017-06-19 00:21:00 2017-06-19 00:00:00  2017
10 WS17170   Molasses… MR      500 2017-06-19 00:21:00 2017-06-19 00:00:00  2017
# ℹ 2,287 more rows
# ℹ 17 more variables: date_month <date>, time_gmt <time>, lat_in <dbl>,
#   lon_in <dbl>, maximumDepthInMeters <dbl>, volume_filt_cubic_m <dbl>,
#   taxa <chr>, scientificname <chr>, lifeStage <chr>, ind_m3 <dbl>,
#   number_ind_sample <dbl>, kingdom <chr>, phylum <chr>, class <chr>,
#   order <chr>, family <chr>, genus <chr>
…
Code

count(dat_nest, station, site, mesh, date_month)

# A tibble: 87 × 5
   station         site   mesh date_month     n
   <chr>           <chr> <dbl> <date>     <int>
 1 57              57       64 2019-01-01     1
 2 57              57       64 2020-12-01     1
 3 9B              9B      200 2018-12-01     1
 4 9B              9B      500 2018-12-01     1
 5 Looe Key (deep) LK       64 2019-01-01     1
 6 Looe Key (deep) LK       64 2020-01-01     1
 7 Looe Key (deep) LK      200 2017-06-01     1
 8 Looe Key (deep) LK      200 2018-01-01     1
 9 Looe Key (deep) LK      200 2018-03-01     1
10 Looe Key (deep) LK      200 2018-06-01     1
# ℹ 77 more rows
…
        # loop through all names to select the lowest name
        for (i in seq(length(dat))) {
          if (is.na(taxa_name)) {
            taxa_name <- dat[i]
          } else {
            taxa_name
          }
        }
        return(taxa_name)
      }
    ),
  ) %T>%
  print() 

# A tibble: 268 × 25
   cruise_id station   site   mesh date_time           date                 year
   <chr>     <chr>     <chr> <dbl> <dttm>              <dttm>              <dbl>
 1 WS17170   Western … WS      200 2017-06-20 19:17:00 2017-06-20 00:00:00  2017
 2 WS17170   Western … WS      200 2017-06-20 19:17:00 2017-06-20 00:00:00  2017
 3 WS17170   Western … WS      200 2017-06-20 19:17:00 2017-06-20 00:00:00  2017
 4 WS17170   Western … WS      200 2017-06-20 19:17:00 2017-06-20 00:00:00  2017
 5 WS17170   Western … WS      200 2017-06-20 19:17:00 2017-06-20 00:00:00  2017
 6 WS17170   Western … WS      200 2017-06-20 19:17:00 2017-06-20 00:00:00  2017
 7 WS17170   Western … WS      200 2017-06-20 19:17:00 2017-06-20 00:00:00  2017
 8 WS17170   Western … WS      200 2017-06-20 19:17:00 2017-06-20 00:00:00  2017
 9 WS17170   Western … WS      200 2017-06-20 19:17:00 2017-06-20 00:00:00  2017
10 WS17170   Western … WS      200 2017-06-20 19:17:00 2017-06-20 00:00:00  2017
# ℹ 258 more rows
# ℹ 18 more variables: date_month <date>, time_gmt <time>, lat_in <dbl>,
#   lon_in <dbl>, maximumDepthInMeters <dbl>, volume_filt_cubic_m <dbl>,
#   taxa <chr>, scientificname <chr>, lifeStage <chr>, ind_m3 <dbl>,
#   number_ind_sample <dbl>, kingdom <chr>, phylum <chr>, class <chr>,
#   order <chr>, family <chr>, genus <chr>, taxa_level <chr>
…
